[api-updater (non-obsolete-error-filter)] 4/3/2022 9:28:28 PM : Starting C:/Program Files/Unity/Hub/Editor/2020.3.27f1/Editor/Data/Tools/ScriptUpdater/APIUpdater.NonObsoleteApiUpdaterDetector.exe
[api-updater (non-obsolete-error-filter)] 
----------------------------------
jit/startup time      : 1045.3475ms
moved types parse time: 67ms
candidates parse time : 1ms
C# parse time         : 692ms
candidates check time : 38ms
console write time    : 0ms

